%YAML 1.1
%TAG !u! tag:unity3d.com,2011:
--- !u!1045 &1
EditorBuildSettings:
  m_ObjectHideFlags: 0
  serializedVersion: 2
  m_Scenes:
  - enabled: 1
    path: Assets/Scenes/menu.unity
    guid: cfc822a9ec4fee74c8aa1266880ff8fb
  - enabled: 1
    path: Assets/Scenes/menu_hub.unity
    guid: 77873b6df77bea246a0f904d403212fc
  - enabled: 0
    path: Assets/Scenes/game_training.unity
    guid: 11dfb30192b925d4fa58b0877aa4ba67
  - enabled: 1
    path: Assets/Scenes/game_floors.unity
    guid: e26fdb3c36cdc8645830cd529a09dbda
  m_configObjects: {}
